{
    "description": "BMW 1 Series 120i leading type",
    "images": {
        "exterior": "https:\/\/cosycn.bmwgroup.com\/OSM\/cosySec?COSY-EU-1C0-7331Pgttp1kgjGQ443T1derfLu2qoV8PhfGVoMSICXQO8BDwiD8ZUX6N8RlUFbmz6w2DhjCKmQjkQqa43T8O1FiTM0d3JyttpyssNMrbGabwBMAjJAc4q%25gHnGB%25tvSWk8on9O6GyKOrLeHuAZWdrf%257luqoFmtpyyvQf6Hgwb1ZiR2c5GjlFSCdTsMsYr9vkuUa1HAOybHVh2Ee0Z4qMC6U8jonf9LjnfJgXA3JgcBcNEPBcBNdR6podUrvSLWzuSYOr3DKme3eHPu4IyOU2pm%257RijCWItx9UJ9D7bGzXBAuxiw4MoEmGF5TYz6IwYTMJKL751XLL43xThN%257%25PGkMRt4tpwyfSfjbW50XrM9iDT8NtfAFukQRb%25RYmyZSSok1I0lrrzwh78sHHS0MxQa22PTfGZVCWhpXwlq9mQLN5noUQ377jnTF2SsAv5Sdm",
        "interior": "https:\/\/cosycn.bmwgroup.com\/OSM\/cosySec?COSY-EU-1C0-7331Pgttp1kgjGQ443T1derfLu2qoV8PhfGVoMSICXQO8BDwiD8ZUX6N8RlUFbmz6w2DhjCKmQPXikp1X2r7UYfLyT5Y8MEUWhGGJhSSl8VwbrwiD8dpWdA70xBAttPBiGmOirCTpBIKXHyIe47UYoAiueg8MEYPTs1QbHHm9gKUWNZVAlvjDRXGEsOJuS6n6aeBmrYxLVUoIHZU3qjz72A0PnJKxCGTpgB4GpgwWco%25wWD5Ddzt5D5duvKbTuxemO4ikYOaIe%25Fy17%257UtY0hHIxjb18MvlGJihQfBxwBFMZXkc5oYflN0nTz1XsRSakKhNaSnwy4MRVc440%25fSqd8M8tXrnvQ0QbNHgOgGZiR2cenBlFSCdQgosYr9vZ8va1HAOOTrVh2EeekNqMC6UUO2nf9LjjtSgXA3JiqbcNEPB194dRpTx9%25MMGpSsjO6omROu1"
    },
    "options": {
        "Customization": [
            {
                "description": "Wheel bolt lock",
                "imageUrl": "https:\/\/cosycn.bmwgroup.com\/OSM\/cosySec?COSY-EU-1C0-7331Pgttp1kgjGQ443T1derfLu2qoV8PhfGVoMSICXQOJzWBAxwqbSixF5qsvEvSWMA4nfO6GFwzMSb9mH0vj1LEAvPUFoX9fGVvvA2LXQOXZi2gQ0O5iHf87jBOsY99x6vtBmrIGLVohivwZZFoqHDPUI%25VP48"
            },
            {
                "description": "Driving experience control system",
                "imageUrl": "https:\/\/cosycn.bmwgroup.com\/OSM\/cosySec?COSY-EU-1C0-7331Pgttp1kgjGQ443T1derfLu2qoV8PhfGVoMSICXQOJzWBAxwqbSixF5qsvEvSWMA4nfO6GFwzMSb9mH0vj1LEAvPUFoX9fGVvvA2LXQOXZi2gQ0O5iHf87jBOsY99x6vtBmzKILVohivwZZFoqHDPUI%25VP48"
            },
            {
                "description": "Lighting components",
                "imageUrl": "https:\/\/cosycn.bmwgroup.com\/OSM\/cosySec?COSY-EU-1C0-7331Pgttp1kgjGQ443T1derfLu2qoV8PhfGVoMSICXQOJzWBAxwqbSixF5qsvEvSWMA4nfO6GFwzMSb9mH0vj1LEAvPUFoX9fGVvvA2LXQOXZi2gQ0O5iHf87jBOsY99x6vtBmGDkLVohivwZZFoqHDPUI%25VP48"
            },
            {
                "description": "Rearview camera",
                "imageUrl": "https:\/\/cosycn.bmwgroup.com\/OSM\/cosySec?COSY-EU-1C0-7331Pgttp1kgjGQ443T1derfLu2qoV8PhfGVoMSICXQOJzWBAxwqbSixF5qsvEvSWMA4nfO6GFwzMSb9mH0vj1LEAvPUFoX9fGVvvA2LXQOXZi2gQ0O5iHf87jBOsY99x6vtBm6pqLVohivwZZFoqHDPUI%25VP48"
            },
            {
                "description": "Explosion-proof tire",
                "imageUrl": "https:\/\/cosycn.bmwgroup.com\/OSM\/cosySec?COSY-EU-1C0-7331Pgttp1kgjGQ443T1derfLu2qoV8PhfGVoMSICXQOJzWBAxwqbSixF5qsvEvSWMA4nfO6GFwzMSb9mH0vj1LEAvPUFoX9fGVvvA2LXQOXZi2gQ0O5iHf87jBOsY99x6vtBmrQeLVohivwZZFoqHDPUI%25VP48"
            },
            {
                "description": "Electric front seat adjustment, driver&#39;s seat with memory",
                "imageUrl": "https:\/\/cosycn.bmwgroup.com\/OSM\/cosySec?COSY-EU-1C0-7331Pgttp1kgjGQ443T1derfLu2qoV8PhfGVoMSICXQOJzWBAxwqbSixF5qsvEvSWMA4nfO6GFwzMSb9mH0vj1LEAvPUFoX9fGVvvA2LXQOXZi2gQ0O5iHf87jBOsY99x6vtBmzQxLVohivwZZFoqHDPUI%25VP48"
            },
            {
                "description": "Comfort into the function",
                "imageUrl": "https:\/\/cosycn.bmwgroup.com\/OSM\/cosySec?COSY-EU-1C0-7331Pgttp1kgjGQ443T1derfLu2qoV8PhfGVoMSICXQOJzWBAxwqbSixF5qsvEvSWMA4nfO6GFwzMSb9mH0vj1LEAvPUFoX9fGVvvA2LXQOXZi2gQ0O5iHf87jBOsY99x6vtBm6LILVohivwZZFoqHDPUI%25VP48"
            },
            {
                "description": "Fog lights",
                "imageUrl": "https:\/\/cosycn.bmwgroup.com\/OSM\/cosySec?COSY-EU-1C0-7331Pgttp1kgjGQ443T1derfLu2qoV8PhfGVoMSICXQOJzWBAxwqbSixF5qsvEvSWMA4nfO6GFwzMSb9mH0vj1LEAvPUFoX9fGVvvA2LXQOXZi2gQ0O5iHf87jBOsY99x6vtBmGLOLVohivwZZFoqHDPUI%25VP48"
            },
            {
                "description": "Rain detector",
                "imageUrl": "https:\/\/cosycn.bmwgroup.com\/OSM\/cosySec?COSY-EU-1C0-7331Pgttp1kgjGQ443T1derfLu2qoV8PhfGVoMSICXQOJzWBAxwqbSixF5qsvEvSWMA4nfO6GFwzMSb9mH0vj1LEAvPUFoX9fGVvvA2LXQOXZi2gQ0O5iHf87jBOsY99x6vtBmGLELVohivwZZFoqHDPUI%25VP48"
            },
            {
                "description": "Electronic servo-assisted steering system",
                "imageUrl": "https:\/\/cosycn.bmwgroup.com\/OSM\/cosySec?COSY-EU-1C0-7331Pgttp1kgjGQ443T1derfLu2qoV8PhfGVoMSICXQOJzWBAxwqbSixF5qsvEvSWMA4nfO6GFwzMSb9mH0vj1LEAvPUFoX9fGVvvA2LXQOXZi2gQ0O5iHf87jBOsY99x6vtBmrR5LVohivwZZFoqHDPUI%25VP48"
            },
            {
                "description": "Drive automatically locked",
                "imageUrl": "https:\/\/cosycn.bmwgroup.com\/OSM\/cosySec?COSY-EU-1C0-7331Pgttp1kgjGQ443T1derfLu2qoV8PhfGVoMSICXQOJzWBAxwqbSixF5qsvEvSWMA4nfO6GFwzMSb9mH0vj1LEAvPUFoX9fGVvvA2LXQOXZi2gQ0O5iHf87jBOsY99x6vtBmyAkLVohivwZZFoqHDPUI%25VP48"
            },
            {
                "description": "alarm system",
                "imageUrl": "https:\/\/cosycn.bmwgroup.com\/OSM\/cosySec?COSY-EU-1C0-7331Pgttp1kgjGQ443T1derfLu2qoV8PhfGVoMSICXQOJzWBAxwqbSixF5qsvEvSWMA4nfO6GFwzMSb9mH0vj1LEAvPUFoX9fGVvvA2LXQOXZi2gQ0O5iHf87jBOsY99x6vtBm6aILVohivwZZFoqHDPUI%25VP48"
            },
            {
                "description": "Bluetooth hands-free with mobile phone with USB interface",
                "imageUrl": "https:\/\/cosycn.bmwgroup.com\/OSM\/cosySec?COSY-EU-1C0-7331Pgttp1kgjGQ443T1derfLu2qoV8PhfGVoMSICXQOJzWBAxwqbSixF5qsvEvSWMA4nfO6GFwzMSb9mH0vj1LEAvPUFoX9fGVvvA2LXQOXZi2gQ0O5iHf87jBOsY99x6vtBmACmLVohivwZZFoqHDPUI%25VP48"
            },
            {
                "description": "Rear parking distance alarm (PDC)",
                "imageUrl": "https:\/\/cosycn.bmwgroup.com\/OSM\/cosySec?COSY-EU-1C0-7331Pgttp1kgjGQ443T1derfLu2qoV8PhfGVoMSICXQOJzWBAxwqbSixF5qsvEvSWMA4nfO6GFwzMSb9mH0vj1LEAvPUFoX9fGVvvA2LXQOXZi2gQ0O5iHf87jBOsY99x6vtBmGaaLVohivwZZFoqHDPUI%25VP48"
            },
            {
                "description": "Front handrail, with sliding function",
                "imageUrl": "https:\/\/cosycn.bmwgroup.com\/OSM\/cosySec?COSY-EU-1C0-7331Pgttp1kgjGQ443T1derfLu2qoV8PhfGVoMSICXQOJzWBAxwqbSixF5qsvEvSWMA4nfO6GFwzMSb9mH0vj1LEAvPUFoX9fGVvvA2LXQOXZi2gQ0O5iHf87jBOsY99x6vtBmzpwLVohivwZZFoqHDPUI%25VP48"
            },
            {
                "description": "BMW professional radio",
                "imageUrl": "https:\/\/cosycn.bmwgroup.com\/OSM\/cosySec?COSY-EU-1C0-7331Pgttp1kgjGQ443T1derfLu2qoV8PhfGVoMSICXQOJzWBAxwqbSixF5qsvEvSWMA4nfO6GFwzMSb9mH0vj1LEAvPUFoX9fGVvvA2LXQOXZi2gQ0O5iHf87jBOsY99x6vtBmADkLVohivwZZFoqHDPUI%25VP48"
            },
            {
                "description": "Smoking package",
                "imageUrl": "https:\/\/cosycn.bmwgroup.com\/OSM\/cosySec?COSY-EU-1C0-7331Pgttp1kgjGQ443T1derfLu2qoV8PhfGVoMSICXQOJzWBAxwqbSixF5qsvEvSWMA4nfO6GFwzMSb9mH0vj1LEAvPUFoX9fGVvvA2LXQOXZi2gQ0O5iHf87jBOsY99x6vtBmzYELVohivwZZFoqHDPUI%25VP48"
            },
            {
                "description": "Multi-function steering wheel button",
                "imageUrl": "https:\/\/cosycn.bmwgroup.com\/OSM\/cosySec?COSY-EU-1C0-7331Pgttp1kgjGQ443T1derfLu2qoV8PhfGVoMSICXQOJzWBAxwqbSixF5qsvEvSWMA4nfO6GFwzMSb9mH0vj1LEAvPUFoX9fGVvvA2LXQOXZi2gQ0O5iHf87jBOsY99x6vtBmrYxLVohivwZZFoqHDPUI%25VP48"
            },
            {
                "description": "Advanced automatic air conditioning",
                "imageUrl": "https:\/\/cosycn.bmwgroup.com\/OSM\/cosySec?COSY-EU-1C0-7331Pgttp1kgjGQ443T1derfLu2qoV8PhfGVoMSICXQOJzWBAxwqbSixF5qsvEvSWMA4nfO6GFwzMSb9mH0vj1LEAvPUFoX9fGVvvA2LXQOXZi2gQ0O5iHf87jBOsY99x6vtBmGmSLVohivwZZFoqHDPUI%25VP48"
            },
            {
                "description": "Storage Box Kit",
                "imageUrl": "https:\/\/cosycn.bmwgroup.com\/OSM\/cosySec?COSY-EU-1C0-7331Pgttp1kgjGQ443T1derfLu2qoV8PhfGVoMSICXQOJzWBAxwqbSixF5qsvEvSWMA4nfO6GFwzMSb9mH0vj1LEAvPUFoX9fGVvvA2LXQOXZi2gQ0O5iHf87jBOsY99x6vtBmzPkLVohivwZZFoqHDPUI%25VP48"
            },
            {
                "description": "Warning triangle and first aid kit",
                "imageUrl": "https:\/\/cosycn.bmwgroup.com\/OSM\/cosySec?COSY-EU-1C0-7331Pgttp1kgjGQ443T1derfLu2qoV8PhfGVoMSICXQOJzWBAxwqbSixF5qsvEvSWMA4nfO6GFwzMSb9mH0vj1LEAvPUFoX9fGVvvA2LXQOXZi2gQ0O5iHf87jBOsY99x6vtBmzLeLVohivwZZFoqHDPUI%25VP48"
            },
            {
                "description": "Electric glass skylights with sliding and tilting functions",
                "imageUrl": "https:\/\/cosycn.bmwgroup.com\/OSM\/cosySec?COSY-EU-1C0-7331Pgttp1kgjGQ443T1derfLu2qoV8PhfGVoMSICXQOJzWBAxwqbSixF5qsvEvSWMA4nfO6GFwzMSb9mH0vj1LEAvPUFoX9fGVvvA2LXQOXZi2gQ0O5iHf87jBOsY99x6vtBmzakLVohivwZZFoqHDPUI%25VP48"
            }
        ],
        "Transmission \/ Suspension": [
            {
                "description": "Tactical gearbox",
                "imageUrl": "https:\/\/cosycn.bmwgroup.com\/OSM\/cosySec?COSY-EU-1C0-7331Pgttp1kgjGQ443T1derfLu2qoV8PhfGVoMSICXQOJzWBAxwqbSixF5qsvEvSWMA4nfO6GFwzMSb9mH0vj1LEAvPUFoX9fGVvvA2LXQOXZi2gQ0O5iHf87jBOsY99x6vtBmragLVohivwZZFoqHDPUI%25VP48"
            }
        ]
    },
    "technicalData": {
        "powerHp": 130,
        "fuelType": "GASOLINE",
        "transmission": "AUTOMATIC",
        "driveType": "REAR",
        "cylinderCapacityCubic": "1598"
    }
}