{
    "description": "BMW M4 convertible coupe",
    "images": {
        "exterior": "https:\/\/cosycn.bmwgroup.com\/OSM\/cosySec?COSY-EU-1C0-7331Pgttp1kgjGQ443T1derfLu2qo%258NhfGVoMSICXQO8BDwiD8ZUX6N8RlUFbmz6w2DhjCKmQjkQqa43T8O1FiTM0d3JyttpyssNMrbGabwBMAjJAc4q%25gHnGB%25tvSWk8on9O6GyKporeHuAZWdrf%257luZ%25RRtpyyvQf6HgwxUZiR2c55GlFSCdTvUsYr9vkRQa1HAOySCVh2EeVhUqMC6Uqnjnf9LjnXfgXA3JgORcNEPBWdidR6poDv6vSLWzuz6Or3DKmkveHPu4INbU2pm%257CpjCWItxopJ9D7bGzXBAuxiwKcoEmGF5%25fz6IwYTF%25KL751keM43xThyBh%25PGkMRPftpwyfSpwbW50XritiDT8NHNBFukQR2doYmyZSCpr1I0lr9RLh78sHA35MxQa2ER9fGZVC6SPXwlq9LLLN5snAf5LRTagEXisSkVc6NyVryqdLR9PH0nv3SAu28gOPrEhCQcepH699ZdUW2LLAlvjDC3TEsOJu92W6aeBmmDOLVUoIIyc3qjz776wPnJKxlLkpg4X1Ukaah4c9IDBGigDbl",
        "interior": "https:\/\/cosycn.bmwgroup.com\/OSM\/cosySec?COSY-EU-1C0-7331Pgttp1kgjGQ443T1derfLu2qo%258NhfGVoMSICXQO8BDwiD8ZUX6N8RlUFbmz6w2DhjCKmQPXikp1X2r7UYfLyT5Y8MEUWhGGJhSSl8VwbrwiD8dpWdA70xBAttPBiGmOirCTpBIKXHybTe7UYoAiueg8MEYA8vvQbHHm9gKUWNfxAlvjDRRXEsOJuSmx6aeBmrv9LVUoIHOJ3qjz73qxPnJKxPpGpgB4GpcgWco%25wWIvDdzt5iuluvKbTFmKmO4ikYkKIe%25Fy1rm7UtY0hdZxjb18MJbGJihQfTbwBFMZXkc5oYflNyDTz1XsR8gkKhNaSs8y4MRVr7n0%25fSqH5q8tXrnvtgQbNHgObNZiR2celQlFSCdUd5sYr9vjuTa1HAOJbeVh2EeBv4qMC6Uo%25Rnf9LjzvBgXA3JKOtcNEPB444dR6pogR4vSLWzcl6Or3DKdH3eHPu4vBtU2pm%25OoYjCWItezqJ9D7bUKBBAuxij44oEmGFJ%25Sz6IwYBjiKL7511FI43xThhHD%25PGkMMKNtpwyfE4rbW0cVxrLLq0DBhF5XlWFZE"
    },
    "options": {
        "Customization": [
            {
                "description": "Front handrail, with sliding function",
                "imageUrl": "https:\/\/cosycn.bmwgroup.com\/OSM\/cosySec?COSY-EU-1C0-7331Pgttp1kgjGQ443T1derfLu2qo%258NhfGVoMSICXQOJzWBAxwqbSixF5qsvEvSWMA4nfO6GFwzMSb9mH0vj1LEAvPUFoX9fGVvvA2LXQOXZi2gQ0O5iHf87jBOsY99x6vtBmzpwLVohivwZZFoqHDPUI%25VP48"
            },
            {
                "description": "Front seat electric lumbar support",
                "imageUrl": "https:\/\/cosycn.bmwgroup.com\/OSM\/cosySec?COSY-EU-1C0-7331Pgttp1kgjGQ443T1derfLu2qo%258NhfGVoMSICXQOJzWBAxwqbSixF5qsvEvSWMA4nfO6GFwzMSb9mH0vj1LEAvPUFoX9fGVvvA2LXQOXZi2gQ0O5iHf87jBOsY99x6vtBmzVeLVohivwZZFoqHDPUI%25VP48"
            },
            {
                "description": "Front seat head and neck heater system",
                "imageUrl": "https:\/\/cosycn.bmwgroup.com\/OSM\/cosySec?COSY-EU-1C0-7331Pgttp1kgjGQ443T1derfLu2qo%258NhfGVoMSICXQOJzWBAxwqbSixF5qsvEvSWMA4nfO6GFwzMSb9mH0vj1LEAvPUFoX9fGVvvA2LXQOXZi2gQ0O5iHf87jBOsY99x6vtBmzCmLVohivwZZFoqHDPUI%25VP48"
            },
            {
                "description": "Velvet foot pad",
                "imageUrl": "https:\/\/cosycn.bmwgroup.com\/OSM\/cosySec?COSY-EU-1C0-7331Pgttp1kgjGQ443T1derfLu2qo%258NhfGVoMSICXQOJzWBAxwqbSixF5qsvEvSWMA4nfO6GFwzMSb9mH0vj1LEAvPUFoX9fGVvvA2LXQOXZi2gQ0O5iHf87jBOsY99x6vtBmzLkLVohivwZZFoqHDPUI%25VP48"
            },
            {
                "description": "Electric front seat adjustment, driver&#39;s seat with memory",
                "imageUrl": "https:\/\/cosycn.bmwgroup.com\/OSM\/cosySec?COSY-EU-1C0-7331Pgttp1kgjGQ443T1derfLu2qo%258NhfGVoMSICXQOJzWBAxwqbSixF5qsvEvSWMA4nfO6GFwzMSb9mH0vj1LEAvPUFoX9fGVvvA2LXQOXZi2gQ0O5iHf87jBOsY99x6vtBmzQxLVohivwZZFoqHDPUI%25VP48"
            },
            {
                "description": "Advanced automatic air conditioning",
                "imageUrl": "https:\/\/cosycn.bmwgroup.com\/OSM\/cosySec?COSY-EU-1C0-7331Pgttp1kgjGQ443T1derfLu2qo%258NhfGVoMSICXQOJzWBAxwqbSixF5qsvEvSWMA4nfO6GFwzMSb9mH0vj1LEAvPUFoX9fGVvvA2LXQOXZi2gQ0O5iHf87jBOsY99x6vtBmGmSLVohivwZZFoqHDPUI%25VP48"
            },
            {
                "description": "Warning triangle and first aid kit",
                "imageUrl": "https:\/\/cosycn.bmwgroup.com\/OSM\/cosySec?COSY-EU-1C0-7331Pgttp1kgjGQ443T1derfLu2qo%258NhfGVoMSICXQOJzWBAxwqbSixF5qsvEvSWMA4nfO6GFwzMSb9mH0vj1LEAvPUFoX9fGVvvA2LXQOXZi2gQ0O5iHf87jBOsY99x6vtBmzLeLVohivwZZFoqHDPUI%25VP48"
            },
            {
                "description": "Adaptive M vehicle drive system",
                "imageUrl": "https:\/\/cosycn.bmwgroup.com\/OSM\/cosySec?COSY-EU-1C0-7331Pgttp1kgjGQ443T1derfLu2qo%258NhfGVoMSICXQOJzWBAxwqbSixF5qsvEvSWMA4nfO6GFwzMSb9mH0vj1LEAvPUFoX9fGVvvA2LXQOXZi2gQ0O5iHf87jBOsY99x6vtBmrv9LVohivwZZFoqHDPUI%25VP48"
            },
            {
                "description": "Headlight cleaning function",
                "imageUrl": "https:\/\/cosycn.bmwgroup.com\/OSM\/cosySec?COSY-EU-1C0-7331Pgttp1kgjGQ443T1derfLu2qo%258NhfGVoMSICXQOJzWBAxwqbSixF5qsvEvSWMA4nfO6GFwzMSb9mH0vj1LEAvPUFoX9fGVvvA2LXQOXZi2gQ0O5iHf87jBOsY99x6vtBmGaILVohivwZZFoqHDPUI%25VP48"
            },
            {
                "description": "Head-up display system",
                "imageUrl": "https:\/\/cosycn.bmwgroup.com\/OSM\/cosySec?COSY-EU-1C0-7331Pgttp1kgjGQ443T1derfLu2qo%258NhfGVoMSICXQOJzWBAxwqbSixF5qsvEvSWMA4nfO6GFwzMSb9mH0vj1LEAvPUFoX9fGVvvA2LXQOXZi2gQ0O5iHf87jBOsY99x6vtBmAROLVohivwZZFoqHDPUI%25VP48"
            },
            {
                "description": "Wheel bolt lock",
                "imageUrl": "https:\/\/cosycn.bmwgroup.com\/OSM\/cosySec?COSY-EU-1C0-7331Pgttp1kgjGQ443T1derfLu2qo%258NhfGVoMSICXQOJzWBAxwqbSixF5qsvEvSWMA4nfO6GFwzMSb9mH0vj1LEAvPUFoX9fGVvvA2LXQOXZi2gQ0O5iHf87jBOsY99x6vtBmrIGLVohivwZZFoqHDPUI%25VP48"
            },
            {
                "description": "Front and rear parking distance alarm (PDC)",
                "imageUrl": "https:\/\/cosycn.bmwgroup.com\/OSM\/cosySec?COSY-EU-1C0-7331Pgttp1kgjGQ443T1derfLu2qo%258NhfGVoMSICXQOJzWBAxwqbSixF5qsvEvSWMA4nfO6GFwzMSb9mH0vj1LEAvPUFoX9fGVvvA2LXQOXZi2gQ0O5iHf87jBOsY99x6vtBmGaeLVohivwZZFoqHDPUI%25VP48"
            },
            {
                "description": "Seat backrest width adjustable",
                "imageUrl": "https:\/\/cosycn.bmwgroup.com\/OSM\/cosySec?COSY-EU-1C0-7331Pgttp1kgjGQ443T1derfLu2qo%258NhfGVoMSICXQOJzWBAxwqbSixF5qsvEvSWMA4nfO6GFwzMSb9mH0vj1LEAvPUFoX9fGVvvA2LXQOXZi2gQ0O5iHf87jBOsY99x6vtBmzPOLVohivwZZFoqHDPUI%25VP48"
            },
            {
                "description": "Storage Box Kit",
                "imageUrl": "https:\/\/cosycn.bmwgroup.com\/OSM\/cosySec?COSY-EU-1C0-7331Pgttp1kgjGQ443T1derfLu2qo%258NhfGVoMSICXQOJzWBAxwqbSixF5qsvEvSWMA4nfO6GFwzMSb9mH0vj1LEAvPUFoX9fGVvvA2LXQOXZi2gQ0O5iHf87jBOsY99x6vtBmzPkLVohivwZZFoqHDPUI%25VP48"
            },
            {
                "description": "Rearview camera",
                "imageUrl": "https:\/\/cosycn.bmwgroup.com\/OSM\/cosySec?COSY-EU-1C0-7331Pgttp1kgjGQ443T1derfLu2qo%258NhfGVoMSICXQOJzWBAxwqbSixF5qsvEvSWMA4nfO6GFwzMSb9mH0vj1LEAvPUFoX9fGVvvA2LXQOXZi2gQ0O5iHf87jBOsY99x6vtBm6pqLVohivwZZFoqHDPUI%25VP48"
            },
            {
                "description": "Front seat heating function",
                "imageUrl": "https:\/\/cosycn.bmwgroup.com\/OSM\/cosySec?COSY-EU-1C0-7331Pgttp1kgjGQ443T1derfLu2qo%258NhfGVoMSICXQOJzWBAxwqbSixF5qsvEvSWMA4nfO6GFwzMSb9mH0vj1LEAvPUFoX9fGVvvA2LXQOXZi2gQ0O5iHf87jBOsY99x6vtBmzPSLVohivwZZFoqHDPUI%25VP48"
            },
            {
                "description": "Windshield",
                "imageUrl": "https:\/\/cosycn.bmwgroup.com\/OSM\/cosySec?COSY-EU-1C0-7331Pgttp1kgjGQ443T1derfLu2qo%258NhfGVoMSICXQOJzWBAxwqbSixF5qsvEvSWMA4nfO6GFwzMSb9mH0vj1LEAvPUFoX9fGVvvA2LXQOXZi2gQ0O5iHf87jBOsY99x6vtBm6VaLVohivwZZFoqHDPUI%25VP48"
            },
            {
                "description": "M double clutch gearbox with Drivelogic system",
                "imageUrl": "https:\/\/cosycn.bmwgroup.com\/OSM\/cosySec?COSY-EU-1C0-7331Pgttp1kgjGQ443T1derfLu2qo%258NhfGVoMSICXQOJzWBAxwqbSixF5qsvEvSWMA4nfO6GFwzMSb9mH0vj1LEAvPUFoX9fGVvvA2LXQOXZi2gQ0O5iHf87jBOsY99x6vtBmrrRLVohivwZZFoqHDPUI%25VP48"
            },
            {
                "description": "Comfort into the function",
                "imageUrl": "https:\/\/cosycn.bmwgroup.com\/OSM\/cosySec?COSY-EU-1C0-7331Pgttp1kgjGQ443T1derfLu2qo%258NhfGVoMSICXQOJzWBAxwqbSixF5qsvEvSWMA4nfO6GFwzMSb9mH0vj1LEAvPUFoX9fGVvvA2LXQOXZi2gQ0O5iHf87jBOsY99x6vtBm6LILVohivwZZFoqHDPUI%25VP48"
            },
            {
                "description": "Additional 12-V power outlet",
                "imageUrl": "https:\/\/cosycn.bmwgroup.com\/OSM\/cosySec?COSY-EU-1C0-7331Pgttp1kgjGQ443T1derfLu2qo%258NhfGVoMSICXQOJzWBAxwqbSixF5qsvEvSWMA4nfO6GFwzMSb9mH0vj1LEAvPUFoX9fGVvvA2LXQOXZi2gQ0O5iHf87jBOsY99x6vtBmGkgLVohivwZZFoqHDPUI%25VP48"
            },
            {
                "description": "Harman \/ Kardon surround sound system",
                "imageUrl": "https:\/\/cosycn.bmwgroup.com\/OSM\/cosySec?COSY-EU-1C0-7331Pgttp1kgjGQ443T1derfLu2qo%258NhfGVoMSICXQOJzWBAxwqbSixF5qsvEvSWMA4nfO6GFwzMSb9mH0vj1LEAvPUFoX9fGVvvA2LXQOXZi2gQ0O5iHf87jBOsY99x6vtBmAVeLVohivwZZFoqHDPUI%25VP48"
            },
            {
                "description": "Cruise control with brake function",
                "imageUrl": "https:\/\/cosycn.bmwgroup.com\/OSM\/cosySec?COSY-EU-1C0-7331Pgttp1kgjGQ443T1derfLu2qo%258NhfGVoMSICXQOJzWBAxwqbSixF5qsvEvSWMA4nfO6GFwzMSb9mH0vj1LEAvPUFoX9fGVvvA2LXQOXZi2gQ0O5iHf87jBOsY99x6vtBmGYSLVohivwZZFoqHDPUI%25VP48"
            },
            {
                "description": "Front passenger airbag off function",
                "imageUrl": "https:\/\/cosycn.bmwgroup.com\/OSM\/cosySec?COSY-EU-1C0-7331Pgttp1kgjGQ443T1derfLu2qo%258NhfGVoMSICXQOJzWBAxwqbSixF5qsvEvSWMA4nfO6GFwzMSb9mH0vj1LEAvPUFoX9fGVvvA2LXQOXZi2gQ0O5iHf87jBOsY99x6vtBmGGGLVohivwZZFoqHDPUI%25VP48"
            },
            {
                "description": "High beam automatic control",
                "imageUrl": "https:\/\/cosycn.bmwgroup.com\/OSM\/cosySec?COSY-EU-1C0-7331Pgttp1kgjGQ443T1derfLu2qo%258NhfGVoMSICXQOJzWBAxwqbSixF5qsvEvSWMA4nfO6GFwzMSb9mH0vj1LEAvPUFoX9fGVvvA2LXQOXZi2gQ0O5iHf87jBOsY99x6vtBmGp7LVohivwZZFoqHDPUI%25VP48"
            },
            {
                "description": "Smoking package",
                "imageUrl": "https:\/\/cosycn.bmwgroup.com\/OSM\/cosySec?COSY-EU-1C0-7331Pgttp1kgjGQ443T1derfLu2qo%258NhfGVoMSICXQOJzWBAxwqbSixF5qsvEvSWMA4nfO6GFwzMSb9mH0vj1LEAvPUFoX9fGVvvA2LXQOXZi2gQ0O5iHf87jBOsY99x6vtBmzYELVohivwZZFoqHDPUI%25VP48"
            },
            {
                "description": "alarm system",
                "imageUrl": "https:\/\/cosycn.bmwgroup.com\/OSM\/cosySec?COSY-EU-1C0-7331Pgttp1kgjGQ443T1derfLu2qo%258NhfGVoMSICXQOJzWBAxwqbSixF5qsvEvSWMA4nfO6GFwzMSb9mH0vj1LEAvPUFoX9fGVvvA2LXQOXZi2gQ0O5iHf87jBOsY99x6vtBm6aILVohivwZZFoqHDPUI%25VP48"
            },
            {
                "description": "Take the initiative to protect the system",
                "imageUrl": "https:\/\/cosycn.bmwgroup.com\/OSM\/cosySec?COSY-EU-1C0-7331Pgttp1kgjGQ443T1derfLu2qo%258NhfGVoMSICXQOJzWBAxwqbSixF5qsvEvSWMA4nfO6GFwzMSb9mH0vj1LEAvPUFoX9fGVvvA2LXQOXZi2gQ0O5iHf87jBOsY99x6vtBmGpTLVohivwZZFoqHDPUI%25VP48"
            },
            {
                "description": "Rain detector",
                "imageUrl": "https:\/\/cosycn.bmwgroup.com\/OSM\/cosySec?COSY-EU-1C0-7331Pgttp1kgjGQ443T1derfLu2qo%258NhfGVoMSICXQOJzWBAxwqbSixF5qsvEvSWMA4nfO6GFwzMSb9mH0vj1LEAvPUFoX9fGVvvA2LXQOXZi2gQ0O5iHf87jBOsY99x6vtBmGLELVohivwZZFoqHDPUI%25VP48"
            },
            {
                "description": "Professional navigation system",
                "imageUrl": "https:\/\/cosycn.bmwgroup.com\/OSM\/cosySec?COSY-EU-1C0-7331Pgttp1kgjGQ443T1derfLu2qo%258NhfGVoMSICXQOJzWBAxwqbSixF5qsvEvSWMA4nfO6GFwzMSb9mH0vj1LEAvPUFoX9fGVvvA2LXQOXZi2gQ0O5iHf87jBOsY99x6vtBmAaxLVohivwZZFoqHDPUI%25VP48"
            }
        ],
        "Packages": [
            {
                "description": "BMW Enhanced Interconnect Package",
                "imageUrl": "https:\/\/cosycn.bmwgroup.com\/OSM\/cosySec?COSY-EU-1C0-7331Pgttp1kgjGQ443T1derfLu2qo%258NhfGVoMSICXQOJzWBAxwqbSixF5qsvEvSWMA4nfO6GFwzMSb9mH0vj1LEAvPUFoX9fGVvvA2LXQOXZi2gQ0O5iHf87jBOsY99x6vtBmmAxLVohivwZZFoqHDPUI%25VP48"
            }
        ],
        "Interior": [
            {
                "description": "Interior and exterior mirrors with automatic anti-glare function",
                "imageUrl": "https:\/\/cosycn.bmwgroup.com\/OSM\/cosySec?COSY-EU-1C0-7331Pgttp1kgjGQ443T1derfLu2qo%258NhfGVoMSICXQOJzWBAxwqbSixF5qsvEvSWMA4nfO6GFwzMSb9mH0vj1LEAvPUFoX9fGVvvA2LXQOXZi2gQ0O5iHf87jBOsY99x6vtBmzmOLVohivwZZFoqHDPUI%25VP48"
            },
            {
                "description": "Electronic servo-assisted steering system",
                "imageUrl": "https:\/\/cosycn.bmwgroup.com\/OSM\/cosySec?COSY-EU-1C0-7331Pgttp1kgjGQ443T1derfLu2qo%258NhfGVoMSICXQOJzWBAxwqbSixF5qsvEvSWMA4nfO6GFwzMSb9mH0vj1LEAvPUFoX9fGVvvA2LXQOXZi2gQ0O5iHf87jBOsY99x6vtBmrR5LVohivwZZFoqHDPUI%25VP48"
            },
            {
                "description": "BMW personalized version of the ink gray roof",
                "imageUrl": "https:\/\/cosycn.bmwgroup.com\/OSM\/cosySec?COSY-EU-1C0-7331Pgttp1kgjGQ443T1derfLu2qo%258NhfGVoMSICXQOJzWBAxwqbSixF5qsvEvSWMA4nfO6GFwzMSb9mH0vj1LEAvPUFoX9fGVvvA2LXQOXZi2gQ0O5iHf87jBOsY99x6vtBmmkgLVohivwZZFoqHDPUI%25VP48"
            }
        ],
        "Safety": [
            {
                "description": "LED follow-up control headlights",
                "imageUrl": "https:\/\/cosycn.bmwgroup.com\/OSM\/cosySec?COSY-EU-1C0-7331Pgttp1kgjGQ443T1derfLu2qo%258NhfGVoMSICXQOJzWBAxwqbSixF5qsvEvSWMA4nfO6GFwzMSb9mH0vj1LEAvPUFoX9fGVvvA2LXQOXZi2gQ0O5iHf87jBOsY99x6vtBmGQILVohivwZZFoqHDPUI%25VP48"
            }
        ],
        "Exterior": [
            {
                "description": "Lighting components",
                "imageUrl": "https:\/\/cosycn.bmwgroup.com\/OSM\/cosySec?COSY-EU-1C0-7331Pgttp1kgjGQ443T1derfLu2qo%258NhfGVoMSICXQOJzWBAxwqbSixF5qsvEvSWMA4nfO6GFwzMSb9mH0vj1LEAvPUFoX9fGVvvA2LXQOXZi2gQ0O5iHf87jBOsY99x6vtBmGDkLVohivwZZFoqHDPUI%25VP48"
            },
            {
                "description": "Personalized version of high-gloss chrome trim",
                "imageUrl": "https:\/\/cosycn.bmwgroup.com\/OSM\/cosySec?COSY-EU-1C0-7331Pgttp1kgjGQ443T1derfLu2qo%258NhfGVoMSICXQOJzWBAxwqbSixF5qsvEvSWMA4nfO6GFwzMSb9mH0vj1LEAvPUFoX9fGVvvA2LXQOXZi2gQ0O5iHf87jBOsY99x6vtBmmDOLVohivwZZFoqHDPUI%25VP48"
            }
        ],
        "ConnectedDrive": [
            {
                "description": "Intelligent emergency call",
                "imageUrl": "https:\/\/cosycn.bmwgroup.com\/OSM\/cosySec?COSY-EU-1C0-7331Pgttp1kgjGQ443T1derfLu2qo%258NhfGVoMSICXQOJzWBAxwqbSixF5qsvEvSWMA4nfO6GFwzMSb9mH0vj1LEAvPUFoX9fGVvvA2LXQOXZi2gQ0O5iHf87jBOsY99x6vtBmAp7LVohivwZZFoqHDPUI%25VP48"
            },
            {
                "description": "BMW remote after-sales service",
                "imageUrl": "https:\/\/cosycn.bmwgroup.com\/OSM\/cosySec?COSY-EU-1C0-7331Pgttp1kgjGQ443T1derfLu2qo%258NhfGVoMSICXQOJzWBAxwqbSixF5qsvEvSWMA4nfO6GFwzMSb9mH0vj1LEAvPUFoX9fGVvvA2LXQOXZi2gQ0O5iHf87jBOsY99x6vtBmApwLVohivwZZFoqHDPUI%25VP48"
            },
            {
                "description": "Information online - Baidu map search (and my point of interest download) - online news, stock and weather information online - Baidu map search (and my point of interest download) - online news, stock and weather information - BMW application",
                "imageUrl": "https:\/\/cosycn.bmwgroup.com\/OSM\/cosySec?COSY-EU-1C0-7331Pgttp1kgjGQ443T1derfLu2qo%258NhfGVoMSICXQOJzWBAxwqbSixF5qsvEvSWMA4nfO6GFwzMSb9mH0vj1LEAvPUFoX9fGVvvA2LXQOXZi2gQ0O5iHf87jBOsY99x6vtBmApRLVohivwZZFoqHDPUI%25VP48"
            },
            {
                "description": "Real-time traffic information",
                "imageUrl": "https:\/\/cosycn.bmwgroup.com\/OSM\/cosySec?COSY-EU-1C0-7331Pgttp1kgjGQ443T1derfLu2qo%258NhfGVoMSICXQOJzWBAxwqbSixF5qsvEvSWMA4nfO6GFwzMSb9mH0vj1LEAvPUFoX9fGVvvA2LXQOXZi2gQ0O5iHf87jBOsY99x6vtBmApLLVohivwZZFoqHDPUI%25VP48"
            },
            {
                "description": "Journey consultation service",
                "imageUrl": "https:\/\/cosycn.bmwgroup.com\/OSM\/cosySec?COSY-EU-1C0-7331Pgttp1kgjGQ443T1derfLu2qo%258NhfGVoMSICXQOJzWBAxwqbSixF5qsvEvSWMA4nfO6GFwzMSb9mH0vj1LEAvPUFoX9fGVvvA2LXQOXZi2gQ0O5iHf87jBOsY99x6vtBmAppLVohivwZZFoqHDPUI%25VP48"
            },
            {
                "description": "Remote Assistance Services",
                "imageUrl": "https:\/\/cosycn.bmwgroup.com\/OSM\/cosySec?COSY-EU-1C0-7331Pgttp1kgjGQ443T1derfLu2qo%258NhfGVoMSICXQOJzWBAxwqbSixF5qsvEvSWMA4nfO6GFwzMSb9mH0vj1LEAvPUFoX9fGVvvA2LXQOXZi2gQ0O5iHf87jBOsY99x6vtBmApyLVohivwZZFoqHDPUI%25VP48"
            }
        ]
    },
    "technicalData": {
        "powerHp": 317,
        "fuelType": "GASOLINE",
        "transmission": "AUTOMATIC",
        "driveType": "REAR",
        "cylinderCapacityCubic": "2979"
    }
}