{
    "description": "BMW 3 Series GT 335i xDrive design package type",
    "images": {
        "exterior": "https:\/\/cosycn.bmwgroup.com\/OSM\/cosySec?COSY-EU-1C0-7331Pgttp1kgjGQ443T1derfLu2qo%25BNhfGVoMSICXQO8BDwiD8ZUX6N8RlUFbmz6w2DhjCKmQjkQqa43T8O1FiTM0d3JyttpyssNMrbGabwBMAjJAc4q%25gHnGB%25tvSWk8on9O6GyKpk9eHuAZWdrf%257lueJRztpyyvQf6HgwZ1ZiR2c5WOlFSCdT%25SsYr9vkOja1HAOyeBVh2Ee0FwqMC6U8H4nf9LjnfJgXA3Jg8%25cNEPBcdodR6podoRvSLWzvjHOr3DKmr4eHPu4IUhU2pm%257jpjCWItxtpJ9D7bGQjBAuxiwH1oEmGF5bPz6IwYTLoKL751k3743xThybH%25PGkM0iUtpwyf8FpbW50XQS4iDT8NHDRFukQR2ukYmyZSC1k1I0lr9hYh78sHAM2MxQa2E2%25fGZVC6jtXwlq9L2WN5snA3HWRTagEPPDSkVc6ppIryqdLRypH0nv3S1q28gOPrxICQcepH6D9ZdUW2L7AlvjDC3XEsOJu9P66aeBmAppLVUoIEW03qjz76A7PnJKxL5TpgB4GG2JWco%25wwCeDdzt55GouvKbTTsjmO4ikkD8Ie%25FygIa7UY2RKlddSYjPTGt0fUGMg",
        "interior": "https:\/\/cosycn.bmwgroup.com\/OSM\/cosySec?COSY-EU-1C0-7331Pgttp1kgjGQ443T1derfLu2qo%25BNhfGVoMSICXQO8BDwiD8ZUX6N8RlUFbmz6w2DhjCKmQPXikp1X2r7UYfLyT5Y8MEUWhGGJhSSl8VwbrwiD8dpWdA70xBAttPBiGmOirCTpBIKXHybrB7UYoAiueg8MEY7wvkQbHHm9gKUWNAVAlvjDRiIEsOJuS8O6aeBmrIGLVUoIH753qjz72sNPnJKxCU0pgB4GpgwWco%25wWC8Ddzt5DuTuvKbTuTvmO4ikmGUIe%25Fy1e07UtY0hxqxjb18MGbGJihQfQbwBFMZX9G5oYflNUVTz1XsRZtkKhNaS4Ty4MRVr%25M0%25fSqHZU8tXrn2lxQbNHgCsbZiR2c9O0lFSCdUFvsYr9vjYra1HAOJVrVh2EeBqaqMC6Uonjnf9Ljzj8gXA3JKGQcNEPB4jidR6po%25UivSLWzttFOr3DKbbheHPu4vHbU2pm%25OVPjCWItefhJ9D7bUKFBAuxij4MoEmGFJ%25cz6IwYBtKKL751obb43xThzi2%25PGkMKoMtpwyf4RSbW50XXjwiDT8NNJ7FukQRRXTYmyZSS6G1I0lrrFCh78sHWhLMxajvyEuuOaGtSXQ2gxXnW"
    },
    "options": {
        "Steering": [
            {
                "description": "Variable sports steering system",
                "imageUrl": "https:\/\/cosycn.bmwgroup.com\/OSM\/cosySec?COSY-EU-1C0-7331Pgttp1kgjGQ443T1derfLu2qo%25BNhfGVoMSICXQOJzWBAxwqbSixF5qsvEvSWMA4nfO6GFwzMSb9mH0vj1LEAvPUFoX9fGVvvA2LXQOXZi2gQ0O5iHf87jBOsY99x6vtBmrvTLVohivwZZFoqHDPUI%25VP48"
            }
        ],
        "Customization": [
            {
                "description": "Warning triangle and first aid kit",
                "imageUrl": "https:\/\/cosycn.bmwgroup.com\/OSM\/cosySec?COSY-EU-1C0-7331Pgttp1kgjGQ443T1derfLu2qo%25BNhfGVoMSICXQOJzWBAxwqbSixF5qsvEvSWMA4nfO6GFwzMSb9mH0vj1LEAvPUFoX9fGVvvA2LXQOXZi2gQ0O5iHf87jBOsY99x6vtBmzLeLVohivwZZFoqHDPUI%25VP48"
            },
            {
                "description": "Take the initiative to protect the system",
                "imageUrl": "https:\/\/cosycn.bmwgroup.com\/OSM\/cosySec?COSY-EU-1C0-7331Pgttp1kgjGQ443T1derfLu2qo%25BNhfGVoMSICXQOJzWBAxwqbSixF5qsvEvSWMA4nfO6GFwzMSb9mH0vj1LEAvPUFoX9fGVvvA2LXQOXZi2gQ0O5iHf87jBOsY99x6vtBmGpTLVohivwZZFoqHDPUI%25VP48"
            },
            {
                "description": "Headlight cleaning function",
                "imageUrl": "https:\/\/cosycn.bmwgroup.com\/OSM\/cosySec?COSY-EU-1C0-7331Pgttp1kgjGQ443T1derfLu2qo%25BNhfGVoMSICXQOJzWBAxwqbSixF5qsvEvSWMA4nfO6GFwzMSb9mH0vj1LEAvPUFoX9fGVvvA2LXQOXZi2gQ0O5iHf87jBOsY99x6vtBmGaILVohivwZZFoqHDPUI%25VP48"
            },
            {
                "description": "Direct loading system",
                "imageUrl": "https:\/\/cosycn.bmwgroup.com\/OSM\/cosySec?COSY-EU-1C0-7331Pgttp1kgjGQ443T1derfLu2qo%25BNhfGVoMSICXQOJzWBAxwqbSixF5qsvEvSWMA4nfO6GFwzMSb9mH0vj1LEAvPUFoX9fGVvvA2LXQOXZi2gQ0O5iHf87jBOsY99x6vtBmzDgLVohivwZZFoqHDPUI%25VP48"
            },
            {
                "description": "Front and rear parking distance alarm (PDC)",
                "imageUrl": "https:\/\/cosycn.bmwgroup.com\/OSM\/cosySec?COSY-EU-1C0-7331Pgttp1kgjGQ443T1derfLu2qo%25BNhfGVoMSICXQOJzWBAxwqbSixF5qsvEvSWMA4nfO6GFwzMSb9mH0vj1LEAvPUFoX9fGVvvA2LXQOXZi2gQ0O5iHf87jBOsY99x6vtBmGaeLVohivwZZFoqHDPUI%25VP48"
            },
            {
                "description": "Wheel bolt lock",
                "imageUrl": "https:\/\/cosycn.bmwgroup.com\/OSM\/cosySec?COSY-EU-1C0-7331Pgttp1kgjGQ443T1derfLu2qo%25BNhfGVoMSICXQOJzWBAxwqbSixF5qsvEvSWMA4nfO6GFwzMSb9mH0vj1LEAvPUFoX9fGVvvA2LXQOXZi2gQ0O5iHf87jBOsY99x6vtBmrIGLVohivwZZFoqHDPUI%25VP48"
            },
            {
                "description": "Cruise control with brake function",
                "imageUrl": "https:\/\/cosycn.bmwgroup.com\/OSM\/cosySec?COSY-EU-1C0-7331Pgttp1kgjGQ443T1derfLu2qo%25BNhfGVoMSICXQOJzWBAxwqbSixF5qsvEvSWMA4nfO6GFwzMSb9mH0vj1LEAvPUFoX9fGVvvA2LXQOXZi2gQ0O5iHf87jBOsY99x6vtBmGYSLVohivwZZFoqHDPUI%25VP48"
            },
            {
                "description": "Comfort into the function",
                "imageUrl": "https:\/\/cosycn.bmwgroup.com\/OSM\/cosySec?COSY-EU-1C0-7331Pgttp1kgjGQ443T1derfLu2qo%25BNhfGVoMSICXQOJzWBAxwqbSixF5qsvEvSWMA4nfO6GFwzMSb9mH0vj1LEAvPUFoX9fGVvvA2LXQOXZi2gQ0O5iHf87jBOsY99x6vtBm6LILVohivwZZFoqHDPUI%25VP48"
            },
            {
                "description": "Panoramic glass skylight",
                "imageUrl": "https:\/\/cosycn.bmwgroup.com\/OSM\/cosySec?COSY-EU-1C0-7331Pgttp1kgjGQ443T1derfLu2qo%25BNhfGVoMSICXQOJzWBAxwqbSixF5qsvEvSWMA4nfO6GFwzMSb9mH0vj1LEAvPUFoX9fGVvvA2LXQOXZi2gQ0O5iHf87jBOsY99x6vtBmzaILVohivwZZFoqHDPUI%25VP48"
            },
            {
                "description": "Smoking package",
                "imageUrl": "https:\/\/cosycn.bmwgroup.com\/OSM\/cosySec?COSY-EU-1C0-7331Pgttp1kgjGQ443T1derfLu2qo%25BNhfGVoMSICXQOJzWBAxwqbSixF5qsvEvSWMA4nfO6GFwzMSb9mH0vj1LEAvPUFoX9fGVvvA2LXQOXZi2gQ0O5iHf87jBOsY99x6vtBmzYELVohivwZZFoqHDPUI%25VP48"
            },
            {
                "description": "Explosion-proof tire",
                "imageUrl": "https:\/\/cosycn.bmwgroup.com\/OSM\/cosySec?COSY-EU-1C0-7331Pgttp1kgjGQ443T1derfLu2qo%25BNhfGVoMSICXQOJzWBAxwqbSixF5qsvEvSWMA4nfO6GFwzMSb9mH0vj1LEAvPUFoX9fGVvvA2LXQOXZi2gQ0O5iHf87jBOsY99x6vtBmrQeLVohivwZZFoqHDPUI%25VP48"
            },
            {
                "description": "Rain detector",
                "imageUrl": "https:\/\/cosycn.bmwgroup.com\/OSM\/cosySec?COSY-EU-1C0-7331Pgttp1kgjGQ443T1derfLu2qo%25BNhfGVoMSICXQOJzWBAxwqbSixF5qsvEvSWMA4nfO6GFwzMSb9mH0vj1LEAvPUFoX9fGVvvA2LXQOXZi2gQ0O5iHf87jBOsY99x6vtBmGLELVohivwZZFoqHDPUI%25VP48"
            },
            {
                "description": "Rearview camera",
                "imageUrl": "https:\/\/cosycn.bmwgroup.com\/OSM\/cosySec?COSY-EU-1C0-7331Pgttp1kgjGQ443T1derfLu2qo%25BNhfGVoMSICXQOJzWBAxwqbSixF5qsvEvSWMA4nfO6GFwzMSb9mH0vj1LEAvPUFoX9fGVvvA2LXQOXZi2gQ0O5iHf87jBOsY99x6vtBm6pqLVohivwZZFoqHDPUI%25VP48"
            },
            {
                "description": "Front seat electric lumbar support",
                "imageUrl": "https:\/\/cosycn.bmwgroup.com\/OSM\/cosySec?COSY-EU-1C0-7331Pgttp1kgjGQ443T1derfLu2qo%25BNhfGVoMSICXQOJzWBAxwqbSixF5qsvEvSWMA4nfO6GFwzMSb9mH0vj1LEAvPUFoX9fGVvvA2LXQOXZi2gQ0O5iHf87jBOsY99x6vtBmzVeLVohivwZZFoqHDPUI%25VP48"
            },
            {
                "description": "Hi-Fi system",
                "imageUrl": "https:\/\/cosycn.bmwgroup.com\/OSM\/cosySec?COSY-EU-1C0-7331Pgttp1kgjGQ443T1derfLu2qo%25BNhfGVoMSICXQOJzWBAxwqbSixF5qsvEvSWMA4nfO6GFwzMSb9mH0vj1LEAvPUFoX9fGVvvA2LXQOXZi2gQ0O5iHf87jBOsY99x6vtBmAk5LVohivwZZFoqHDPUI%25VP48"
            },
            {
                "description": "alarm system",
                "imageUrl": "https:\/\/cosycn.bmwgroup.com\/OSM\/cosySec?COSY-EU-1C0-7331Pgttp1kgjGQ443T1derfLu2qo%25BNhfGVoMSICXQOJzWBAxwqbSixF5qsvEvSWMA4nfO6GFwzMSb9mH0vj1LEAvPUFoX9fGVvvA2LXQOXZi2gQ0O5iHf87jBOsY99x6vtBm6aILVohivwZZFoqHDPUI%25VP48"
            },
            {
                "description": "Expanded dashboard",
                "imageUrl": "https:\/\/cosycn.bmwgroup.com\/OSM\/cosySec?COSY-EU-1C0-7331Pgttp1kgjGQ443T1derfLu2qo%25BNhfGVoMSICXQOJzWBAxwqbSixF5qsvEvSWMA4nfO6GFwzMSb9mH0vj1LEAvPUFoX9fGVvvA2LXQOXZi2gQ0O5iHf87jBOsY99x6vtBmAxGLVohivwZZFoqHDPUI%25VP48"
            },
            {
                "description": "Professional navigation system",
                "imageUrl": "https:\/\/cosycn.bmwgroup.com\/OSM\/cosySec?COSY-EU-1C0-7331Pgttp1kgjGQ443T1derfLu2qo%25BNhfGVoMSICXQOJzWBAxwqbSixF5qsvEvSWMA4nfO6GFwzMSb9mH0vj1LEAvPUFoX9fGVvvA2LXQOXZi2gQ0O5iHf87jBOsY99x6vtBmAaxLVohivwZZFoqHDPUI%25VP48"
            },
            {
                "description": "Electric front seat adjustment, driver&#39;s seat with memory",
                "imageUrl": "https:\/\/cosycn.bmwgroup.com\/OSM\/cosySec?COSY-EU-1C0-7331Pgttp1kgjGQ443T1derfLu2qo%25BNhfGVoMSICXQOJzWBAxwqbSixF5qsvEvSWMA4nfO6GFwzMSb9mH0vj1LEAvPUFoX9fGVvvA2LXQOXZi2gQ0O5iHf87jBOsY99x6vtBmzQxLVohivwZZFoqHDPUI%25VP48"
            },
            {
                "description": "Advanced automatic air conditioning",
                "imageUrl": "https:\/\/cosycn.bmwgroup.com\/OSM\/cosySec?COSY-EU-1C0-7331Pgttp1kgjGQ443T1derfLu2qo%25BNhfGVoMSICXQOJzWBAxwqbSixF5qsvEvSWMA4nfO6GFwzMSb9mH0vj1LEAvPUFoX9fGVvvA2LXQOXZi2gQ0O5iHf87jBOsY99x6vtBmGmSLVohivwZZFoqHDPUI%25VP48"
            },
            {
                "description": "Storage Box Kit",
                "imageUrl": "https:\/\/cosycn.bmwgroup.com\/OSM\/cosySec?COSY-EU-1C0-7331Pgttp1kgjGQ443T1derfLu2qo%25BNhfGVoMSICXQOJzWBAxwqbSixF5qsvEvSWMA4nfO6GFwzMSb9mH0vj1LEAvPUFoX9fGVvvA2LXQOXZi2gQ0O5iHf87jBOsY99x6vtBmzPkLVohivwZZFoqHDPUI%25VP48"
            },
            {
                "description": "Front seat heating function",
                "imageUrl": "https:\/\/cosycn.bmwgroup.com\/OSM\/cosySec?COSY-EU-1C0-7331Pgttp1kgjGQ443T1derfLu2qo%25BNhfGVoMSICXQOJzWBAxwqbSixF5qsvEvSWMA4nfO6GFwzMSb9mH0vj1LEAvPUFoX9fGVvvA2LXQOXZi2gQ0O5iHf87jBOsY99x6vtBmzPSLVohivwZZFoqHDPUI%25VP48"
            },
            {
                "description": "Rear center armrest",
                "imageUrl": "https:\/\/cosycn.bmwgroup.com\/OSM\/cosySec?COSY-EU-1C0-7331Pgttp1kgjGQ443T1derfLu2qo%25BNhfGVoMSICXQOJzWBAxwqbSixF5qsvEvSWMA4nfO6GFwzMSb9mH0vj1LEAvPUFoX9fGVvvA2LXQOXZi2gQ0O5iHf87jBOsY99x6vtBmzPaLVohivwZZFoqHDPUI%25VP48"
            },
            {
                "description": "Velvet foot pad",
                "imageUrl": "https:\/\/cosycn.bmwgroup.com\/OSM\/cosySec?COSY-EU-1C0-7331Pgttp1kgjGQ443T1derfLu2qo%25BNhfGVoMSICXQOJzWBAxwqbSixF5qsvEvSWMA4nfO6GFwzMSb9mH0vj1LEAvPUFoX9fGVvvA2LXQOXZi2gQ0O5iHf87jBOsY99x6vtBmzLkLVohivwZZFoqHDPUI%25VP48"
            },
            {
                "description": "Head-up display system",
                "imageUrl": "https:\/\/cosycn.bmwgroup.com\/OSM\/cosySec?COSY-EU-1C0-7331Pgttp1kgjGQ443T1derfLu2qo%25BNhfGVoMSICXQOJzWBAxwqbSixF5qsvEvSWMA4nfO6GFwzMSb9mH0vj1LEAvPUFoX9fGVvvA2LXQOXZi2gQ0O5iHf87jBOsY99x6vtBmAROLVohivwZZFoqHDPUI%25VP48"
            }
        ],
        "Packages": [
            {
                "description": "BMW Enhanced Interconnect Package",
                "imageUrl": "https:\/\/cosycn.bmwgroup.com\/OSM\/cosySec?COSY-EU-1C0-7331Pgttp1kgjGQ443T1derfLu2qo%25BNhfGVoMSICXQOJzWBAxwqbSixF5qsvEvSWMA4nfO6GFwzMSb9mH0vj1LEAvPUFoX9fGVvvA2LXQOXZi2gQ0O5iHf87jBOsY99x6vtBmmAxLVohivwZZFoqHDPUI%25VP48"
            }
        ],
        "Interior": [
            {
                "description": "Interior and exterior mirrors with automatic anti-glare function",
                "imageUrl": "https:\/\/cosycn.bmwgroup.com\/OSM\/cosySec?COSY-EU-1C0-7331Pgttp1kgjGQ443T1derfLu2qo%25BNhfGVoMSICXQOJzWBAxwqbSixF5qsvEvSWMA4nfO6GFwzMSb9mH0vj1LEAvPUFoX9fGVvvA2LXQOXZi2gQ0O5iHf87jBOsY99x6vtBmzmOLVohivwZZFoqHDPUI%25VP48"
            },
            {
                "description": "Multi-function steering wheel button",
                "imageUrl": "https:\/\/cosycn.bmwgroup.com\/OSM\/cosySec?COSY-EU-1C0-7331Pgttp1kgjGQ443T1derfLu2qo%25BNhfGVoMSICXQOJzWBAxwqbSixF5qsvEvSWMA4nfO6GFwzMSb9mH0vj1LEAvPUFoX9fGVvvA2LXQOXZi2gQ0O5iHf87jBOsY99x6vtBmrYxLVohivwZZFoqHDPUI%25VP48"
            },
            {
                "description": "Bluetooth hands-free with mobile phone with USB interface",
                "imageUrl": "https:\/\/cosycn.bmwgroup.com\/OSM\/cosySec?COSY-EU-1C0-7331Pgttp1kgjGQ443T1derfLu2qo%25BNhfGVoMSICXQOJzWBAxwqbSixF5qsvEvSWMA4nfO6GFwzMSb9mH0vj1LEAvPUFoX9fGVvvA2LXQOXZi2gQ0O5iHf87jBOsY99x6vtBmACmLVohivwZZFoqHDPUI%25VP48"
            }
        ],
        "Transmission \/ Suspension": [
            {
                "description": "8-speed sports automatic transmission with shift paddles",
                "imageUrl": "https:\/\/cosycn.bmwgroup.com\/OSM\/cosySec?COSY-EU-1C0-7331Pgttp1kgjGQ443T1derfLu2qo%25BNhfGVoMSICXQOJzWBAxwqbSixF5qsvEvSWMA4nfO6GFwzMSb9mH0vj1LEAvPUFoX9fGVvvA2LXQOXZi2gQ0O5iHf87jBOsY99x6vtBmrZfLVohivwZZFoqHDPUI%25VP48"
            }
        ],
        "Safety": [
            {
                "description": "Xenon lights near and far light",
                "imageUrl": "https:\/\/cosycn.bmwgroup.com\/OSM\/cosySec?COSY-EU-1C0-7331Pgttp1kgjGQ443T1derfLu2qo%25BNhfGVoMSICXQOJzWBAxwqbSixF5qsvEvSWMA4nfO6GFwzMSb9mH0vj1LEAvPUFoX9fGVvvA2LXQOXZi2gQ0O5iHf87jBOsY99x6vtBmGLILVohivwZZFoqHDPUI%25VP48"
            },
            {
                "description": "Panoramic camera",
                "imageUrl": "https:\/\/cosycn.bmwgroup.com\/OSM\/cosySec?COSY-EU-1C0-7331Pgttp1kgjGQ443T1derfLu2qo%25BNhfGVoMSICXQOJzWBAxwqbSixF5qsvEvSWMA4nfO6GFwzMSb9mH0vj1LEAvPUFoX9fGVvvA2LXQOXZi2gQ0O5iHf87jBOsY99x6vtBmGGTLVohivwZZFoqHDPUI%25VP48"
            },
            {
                "description": "Automatic parking assistance system",
                "imageUrl": "https:\/\/cosycn.bmwgroup.com\/OSM\/cosySec?COSY-EU-1C0-7331Pgttp1kgjGQ443T1derfLu2qo%25BNhfGVoMSICXQOJzWBAxwqbSixF5qsvEvSWMA4nfO6GFwzMSb9mH0vj1LEAvPUFoX9fGVvvA2LXQOXZi2gQ0O5iHf87jBOsY99x6vtBmGGyLVohivwZZFoqHDPUI%25VP48"
            }
        ],
        "Exterior": [
            {
                "description": "Rear trunk lid automatic control",
                "imageUrl": "https:\/\/cosycn.bmwgroup.com\/OSM\/cosySec?COSY-EU-1C0-7331Pgttp1kgjGQ443T1derfLu2qo%25BNhfGVoMSICXQOJzWBAxwqbSixF5qsvEvSWMA4nfO6GFwzMSb9mH0vj1LEAvPUFoX9fGVvvA2LXQOXZi2gQ0O5iHf87jBOsY99x6vtBm6R5LVohivwZZFoqHDPUI%25VP48"
            },
            {
                "description": "Fog lights",
                "imageUrl": "https:\/\/cosycn.bmwgroup.com\/OSM\/cosySec?COSY-EU-1C0-7331Pgttp1kgjGQ443T1derfLu2qo%25BNhfGVoMSICXQOJzWBAxwqbSixF5qsvEvSWMA4nfO6GFwzMSb9mH0vj1LEAvPUFoX9fGVvvA2LXQOXZi2gQ0O5iHf87jBOsY99x6vtBmGLOLVohivwZZFoqHDPUI%25VP48"
            },
            {
                "description": "Lighting components",
                "imageUrl": "https:\/\/cosycn.bmwgroup.com\/OSM\/cosySec?COSY-EU-1C0-7331Pgttp1kgjGQ443T1derfLu2qo%25BNhfGVoMSICXQOJzWBAxwqbSixF5qsvEvSWMA4nfO6GFwzMSb9mH0vj1LEAvPUFoX9fGVvvA2LXQOXZi2gQ0O5iHf87jBOsY99x6vtBmGDkLVohivwZZFoqHDPUI%25VP48"
            }
        ],
        "ConnectedDrive": [
            {
                "description": "Intelligent emergency call",
                "imageUrl": "https:\/\/cosycn.bmwgroup.com\/OSM\/cosySec?COSY-EU-1C0-7331Pgttp1kgjGQ443T1derfLu2qo%25BNhfGVoMSICXQOJzWBAxwqbSixF5qsvEvSWMA4nfO6GFwzMSb9mH0vj1LEAvPUFoX9fGVvvA2LXQOXZi2gQ0O5iHf87jBOsY99x6vtBmAp7LVohivwZZFoqHDPUI%25VP48"
            },
            {
                "description": "BMW remote after-sales service",
                "imageUrl": "https:\/\/cosycn.bmwgroup.com\/OSM\/cosySec?COSY-EU-1C0-7331Pgttp1kgjGQ443T1derfLu2qo%25BNhfGVoMSICXQOJzWBAxwqbSixF5qsvEvSWMA4nfO6GFwzMSb9mH0vj1LEAvPUFoX9fGVvvA2LXQOXZi2gQ0O5iHf87jBOsY99x6vtBmApwLVohivwZZFoqHDPUI%25VP48"
            },
            {
                "description": "Information online - Baidu map search (and my point of interest download) - online news, stock and weather information online - Baidu map search (and my point of interest download) - online news, stock and weather information - BMW application",
                "imageUrl": "https:\/\/cosycn.bmwgroup.com\/OSM\/cosySec?COSY-EU-1C0-7331Pgttp1kgjGQ443T1derfLu2qo%25BNhfGVoMSICXQOJzWBAxwqbSixF5qsvEvSWMA4nfO6GFwzMSb9mH0vj1LEAvPUFoX9fGVvvA2LXQOXZi2gQ0O5iHf87jBOsY99x6vtBmApRLVohivwZZFoqHDPUI%25VP48"
            },
            {
                "description": "Real-time traffic information",
                "imageUrl": "https:\/\/cosycn.bmwgroup.com\/OSM\/cosySec?COSY-EU-1C0-7331Pgttp1kgjGQ443T1derfLu2qo%25BNhfGVoMSICXQOJzWBAxwqbSixF5qsvEvSWMA4nfO6GFwzMSb9mH0vj1LEAvPUFoX9fGVvvA2LXQOXZi2gQ0O5iHf87jBOsY99x6vtBmApLLVohivwZZFoqHDPUI%25VP48"
            },
            {
                "description": "Journey consultation service",
                "imageUrl": "https:\/\/cosycn.bmwgroup.com\/OSM\/cosySec?COSY-EU-1C0-7331Pgttp1kgjGQ443T1derfLu2qo%25BNhfGVoMSICXQOJzWBAxwqbSixF5qsvEvSWMA4nfO6GFwzMSb9mH0vj1LEAvPUFoX9fGVvvA2LXQOXZi2gQ0O5iHf87jBOsY99x6vtBmAppLVohivwZZFoqHDPUI%25VP48"
            },
            {
                "description": "Remote Assistance Services",
                "imageUrl": "https:\/\/cosycn.bmwgroup.com\/OSM\/cosySec?COSY-EU-1C0-7331Pgttp1kgjGQ443T1derfLu2qo%25BNhfGVoMSICXQOJzWBAxwqbSixF5qsvEvSWMA4nfO6GFwzMSb9mH0vj1LEAvPUFoX9fGVvvA2LXQOXZi2gQ0O5iHf87jBOsY99x6vtBmApyLVohivwZZFoqHDPUI%25VP48"
            }
        ]
    },
    "technicalData": {
        "powerHp": 225,
        "fuelType": "GASOLINE",
        "transmission": "AUTOMATIC",
        "driveType": "REAR",
        "cylinderCapacityCubic": "2979"
    }
}