{
    "description": "BMW 5 Series Travel Sedan 520i",
    "images": {
        "exterior": "https:\/\/cosycn.bmwgroup.com\/OSM\/cosySec?COSY-EU-1C0-7331Pgttp1kgjGQ443T1derfLu2qoR94hfGVoMSICXQO8BDwiD8ZUX6N8RlUFbmz6w2DhjCKmQjkQqa43T8O1FiTM0d3JyttpyssNMrbGabwBMAjJAc4q%25gHnGB%25tvSWk8on9O6GyKqsLeHuAZWdrf%257lueJY5tpyyvQf6Hgwb1ZiR2c54hlFSCdT%25SsYr9vkDla1HAOyeJVh2EeVhUqMC6UqyKnf9LjnvNgXA3JgOHcNEPBWNodR6poDvFvSLWzuOLOr3DKmkveHPu4INbU2pm%257BqjCWItxzLJ9D7bGwiBAuxihAFoEmGFMEmz6IwYfYvKL751Xbz43xThNir%25PGkMKo1tpwyfE4rbW0cVxrLLq0DBhF5XlWFZE",
        "interior": "https:\/\/cosycn.bmwgroup.com\/OSM\/cosySec?COSY-EU-1C0-7331Pgttp1kgjGQ443T1derfLu2qoR94hfGVoMSICXQO8BDwiD8ZUX6N8RlUFbmz6w2DhjCKmQPXikp1X2r7UYfLyT5Y8MEUWhGGJhSSl8VwbrwiD8dpWdA70xBAttPBiGmOirCTpBIKXHyP647UYoAiueg8MEY7waRQbHHm9gKUWNZVAlvjDR0qEsOJuS8O6aeBmrFELVUoIH7w3qjz73qxPnJKxPHypgB4GpmdWco%25wWIUDdzt5idTuvKbTFmsmO4ikYI4Ie%25Fy1rm7UtY0hdZxjb18M5PGJihQfk4wBFMZXNl5oYflqosTz1Xsnz1kKhNagamy4MRVcZk0%25fSqdle8tXrnyTVQbNHgz0eZi2D3fe44P2F5qsRcEisAz"
    },
    "options": {
        "Trims": [
            {
                "description": "Black high-gloss interior",
                "imageUrl": "https:\/\/cosycn.bmwgroup.com\/OSM\/cosySec?COSY-EU-1C0-7331Pgttp1kgjGQ443T1derfLu2qoR94hfGVoMSICXQOJzWBAxwqbSixF5qsvEvSWMA4nfO6GFwzMSb9mH0vj1LEAvPUFoX9fGVvvA2LXQOXZi2gQ0O5iHf87jBOsY99x6vtBmzpcLVohivwZZFoqHDPUI%25VP48"
            }
        ],
        "Customization": [
            {
                "description": "alarm system",
                "imageUrl": "https:\/\/cosycn.bmwgroup.com\/OSM\/cosySec?COSY-EU-1C0-7331Pgttp1kgjGQ443T1derfLu2qoR94hfGVoMSICXQOJzWBAxwqbSixF5qsvEvSWMA4nfO6GFwzMSb9mH0vj1LEAvPUFoX9fGVvvA2LXQOXZi2gQ0O5iHf87jBOsY99x6vtBm6aILVohivwZZFoqHDPUI%25VP48"
            },
            {
                "description": "Advanced automatic air conditioning",
                "imageUrl": "https:\/\/cosycn.bmwgroup.com\/OSM\/cosySec?COSY-EU-1C0-7331Pgttp1kgjGQ443T1derfLu2qoR94hfGVoMSICXQOJzWBAxwqbSixF5qsvEvSWMA4nfO6GFwzMSb9mH0vj1LEAvPUFoX9fGVvvA2LXQOXZi2gQ0O5iHf87jBOsY99x6vtBmGmSLVohivwZZFoqHDPUI%25VP48"
            },
            {
                "description": "Panoramic glass skylight",
                "imageUrl": "https:\/\/cosycn.bmwgroup.com\/OSM\/cosySec?COSY-EU-1C0-7331Pgttp1kgjGQ443T1derfLu2qoR94hfGVoMSICXQOJzWBAxwqbSixF5qsvEvSWMA4nfO6GFwzMSb9mH0vj1LEAvPUFoX9fGVvvA2LXQOXZi2gQ0O5iHf87jBOsY99x6vtBmzaILVohivwZZFoqHDPUI%25VP48"
            },
            {
                "description": "Electric front seat adjustment, driver&#39;s seat with memory",
                "imageUrl": "https:\/\/cosycn.bmwgroup.com\/OSM\/cosySec?COSY-EU-1C0-7331Pgttp1kgjGQ443T1derfLu2qoR94hfGVoMSICXQOJzWBAxwqbSixF5qsvEvSWMA4nfO6GFwzMSb9mH0vj1LEAvPUFoX9fGVvvA2LXQOXZi2gQ0O5iHf87jBOsY99x6vtBmzQxLVohivwZZFoqHDPUI%25VP48"
            },
            {
                "description": "Headlight cleaning function",
                "imageUrl": "https:\/\/cosycn.bmwgroup.com\/OSM\/cosySec?COSY-EU-1C0-7331Pgttp1kgjGQ443T1derfLu2qoR94hfGVoMSICXQOJzWBAxwqbSixF5qsvEvSWMA4nfO6GFwzMSb9mH0vj1LEAvPUFoX9fGVvvA2LXQOXZi2gQ0O5iHf87jBOsY99x6vtBmGaILVohivwZZFoqHDPUI%25VP48"
            },
            {
                "description": "Velvet foot pad",
                "imageUrl": "https:\/\/cosycn.bmwgroup.com\/OSM\/cosySec?COSY-EU-1C0-7331Pgttp1kgjGQ443T1derfLu2qoR94hfGVoMSICXQOJzWBAxwqbSixF5qsvEvSWMA4nfO6GFwzMSb9mH0vj1LEAvPUFoX9fGVvvA2LXQOXZi2gQ0O5iHf87jBOsY99x6vtBmzLkLVohivwZZFoqHDPUI%25VP48"
            },
            {
                "description": "Rearview camera",
                "imageUrl": "https:\/\/cosycn.bmwgroup.com\/OSM\/cosySec?COSY-EU-1C0-7331Pgttp1kgjGQ443T1derfLu2qoR94hfGVoMSICXQOJzWBAxwqbSixF5qsvEvSWMA4nfO6GFwzMSb9mH0vj1LEAvPUFoX9fGVvvA2LXQOXZi2gQ0O5iHf87jBOsY99x6vtBm6pqLVohivwZZFoqHDPUI%25VP48"
            },
            {
                "description": "Front and rear parking distance alarm (PDC)",
                "imageUrl": "https:\/\/cosycn.bmwgroup.com\/OSM\/cosySec?COSY-EU-1C0-7331Pgttp1kgjGQ443T1derfLu2qoR94hfGVoMSICXQOJzWBAxwqbSixF5qsvEvSWMA4nfO6GFwzMSb9mH0vj1LEAvPUFoX9fGVvvA2LXQOXZi2gQ0O5iHf87jBOsY99x6vtBmGaeLVohivwZZFoqHDPUI%25VP48"
            },
            {
                "description": "Warning triangle and first aid kit",
                "imageUrl": "https:\/\/cosycn.bmwgroup.com\/OSM\/cosySec?COSY-EU-1C0-7331Pgttp1kgjGQ443T1derfLu2qoR94hfGVoMSICXQOJzWBAxwqbSixF5qsvEvSWMA4nfO6GFwzMSb9mH0vj1LEAvPUFoX9fGVvvA2LXQOXZi2gQ0O5iHf87jBOsY99x6vtBmzLeLVohivwZZFoqHDPUI%25VP48"
            },
            {
                "description": "Front seat heating function",
                "imageUrl": "https:\/\/cosycn.bmwgroup.com\/OSM\/cosySec?COSY-EU-1C0-7331Pgttp1kgjGQ443T1derfLu2qoR94hfGVoMSICXQOJzWBAxwqbSixF5qsvEvSWMA4nfO6GFwzMSb9mH0vj1LEAvPUFoX9fGVvvA2LXQOXZi2gQ0O5iHf87jBOsY99x6vtBmzPSLVohivwZZFoqHDPUI%25VP48"
            },
            {
                "description": "Smoking package",
                "imageUrl": "https:\/\/cosycn.bmwgroup.com\/OSM\/cosySec?COSY-EU-1C0-7331Pgttp1kgjGQ443T1derfLu2qoR94hfGVoMSICXQOJzWBAxwqbSixF5qsvEvSWMA4nfO6GFwzMSb9mH0vj1LEAvPUFoX9fGVvvA2LXQOXZi2gQ0O5iHf87jBOsY99x6vtBmzYELVohivwZZFoqHDPUI%25VP48"
            },
            {
                "description": "Aluminum satin roof luggage rack",
                "imageUrl": "https:\/\/cosycn.bmwgroup.com\/OSM\/cosySec?COSY-EU-1C0-7331Pgttp1kgjGQ443T1derfLu2qoR94hfGVoMSICXQOJzWBAxwqbSixF5qsvEvSWMA4nfO6GFwzMSb9mH0vj1LEAvPUFoX9fGVvvA2LXQOXZi2gQ0O5iHf87jBOsY99x6vtBm6pcLVohivwZZFoqHDPUI%25VP48"
            },
            {
                "description": "Take the initiative to protect the system",
                "imageUrl": "https:\/\/cosycn.bmwgroup.com\/OSM\/cosySec?COSY-EU-1C0-7331Pgttp1kgjGQ443T1derfLu2qoR94hfGVoMSICXQOJzWBAxwqbSixF5qsvEvSWMA4nfO6GFwzMSb9mH0vj1LEAvPUFoX9fGVvvA2LXQOXZi2gQ0O5iHf87jBOsY99x6vtBmGpTLVohivwZZFoqHDPUI%25VP48"
            },
            {
                "description": "Driving experience control system",
                "imageUrl": "https:\/\/cosycn.bmwgroup.com\/OSM\/cosySec?COSY-EU-1C0-7331Pgttp1kgjGQ443T1derfLu2qoR94hfGVoMSICXQOJzWBAxwqbSixF5qsvEvSWMA4nfO6GFwzMSb9mH0vj1LEAvPUFoX9fGVvvA2LXQOXZi2gQ0O5iHf87jBOsY99x6vtBmzKILVohivwZZFoqHDPUI%25VP48"
            },
            {
                "description": "Sports leather steering wheel",
                "imageUrl": "https:\/\/cosycn.bmwgroup.com\/OSM\/cosySec?COSY-EU-1C0-7331Pgttp1kgjGQ443T1derfLu2qoR94hfGVoMSICXQOJzWBAxwqbSixF5qsvEvSWMA4nfO6GFwzMSb9mH0vj1LEAvPUFoX9fGVvvA2LXQOXZi2gQ0O5iHf87jBOsY99x6vtBmrQgLVohivwZZFoqHDPUI%25VP48"
            },
            {
                "description": "Wheel bolt lock",
                "imageUrl": "https:\/\/cosycn.bmwgroup.com\/OSM\/cosySec?COSY-EU-1C0-7331Pgttp1kgjGQ443T1derfLu2qoR94hfGVoMSICXQOJzWBAxwqbSixF5qsvEvSWMA4nfO6GFwzMSb9mH0vj1LEAvPUFoX9fGVvvA2LXQOXZi2gQ0O5iHf87jBOsY99x6vtBmrIGLVohivwZZFoqHDPUI%25VP48"
            },
            {
                "description": "Explosion-proof tire",
                "imageUrl": "https:\/\/cosycn.bmwgroup.com\/OSM\/cosySec?COSY-EU-1C0-7331Pgttp1kgjGQ443T1derfLu2qoR94hfGVoMSICXQOJzWBAxwqbSixF5qsvEvSWMA4nfO6GFwzMSb9mH0vj1LEAvPUFoX9fGVvvA2LXQOXZi2gQ0O5iHf87jBOsY99x6vtBmrQeLVohivwZZFoqHDPUI%25VP48"
            }
        ],
        "Interior": [
            {
                "description": "Bluetooth with Bluetooth interface and music connection function with USB interface",
                "imageUrl": "https:\/\/cosycn.bmwgroup.com\/OSM\/cosySec?COSY-EU-1C0-7331Pgttp1kgjGQ443T1derfLu2qoR94hfGVoMSICXQOJzWBAxwqbSixF5qsvEvSWMA4nfO6GFwzMSb9mH0vj1LEAvPUFoX9fGVvvA2LXQOXZi2gQ0O5iHf87jBOsY99x6vtBmACDLVohivwZZFoqHDPUI%25VP48"
            }
        ],
        "Rims": [
            {
                "description": "17-inch alloy wheels, V-spoke",
                "imageUrl": "https:\/\/cosycn.bmwgroup.com\/OSM\/cosySec?COSY-EU-1C0-7331Pgttp1kgjGQ443T1derfLu2qoR94hfGVoMSICXQObrcNPW0JYBPoD0AsTzXUiVxjkYCd9sUzgbS43T5dvMU35XnvXnfLW0UOvLJpkmldZi2LLvgUlN3lRTgANf3YTnOjRtw1gWTHL3YVe3qzzN%257lkMjV4tpyga7S66VyWJ1iwfZpiQA"
            }
        ],
        "Transmission \/ Suspension": [
            {
                "description": "Tactical gearbox",
                "imageUrl": "https:\/\/cosycn.bmwgroup.com\/OSM\/cosySec?COSY-EU-1C0-7331Pgttp1kgjGQ443T1derfLu2qoR94hfGVoMSICXQOJzWBAxwqbSixF5qsvEvSWMA4nfO6GFwzMSb9mH0vj1LEAvPUFoX9fGVvvA2LXQOXZi2gQ0O5iHf87jBOsY99x6vtBmragLVohivwZZFoqHDPUI%25VP48"
            }
        ],
        "Exterior": [
            {
                "description": "LED fog lights",
                "imageUrl": "https:\/\/cosycn.bmwgroup.com\/OSM\/cosySec?COSY-EU-1C0-7331Pgttp1kgjGQ443T1derfLu2qoR94hfGVoMSICXQOJzWBAxwqbSixF5qsvEvSWMA4nfO6GFwzMSb9mH0vj1LEAvPUFoX9fGVvvA2LXQOXZi2gQ0O5iHf87jBOsY99x6vtBmGpELVohivwZZFoqHDPUI%25VP48"
            },
            {
                "description": "Rear trunk lid automatic control",
                "imageUrl": "https:\/\/cosycn.bmwgroup.com\/OSM\/cosySec?COSY-EU-1C0-7331Pgttp1kgjGQ443T1derfLu2qoR94hfGVoMSICXQOJzWBAxwqbSixF5qsvEvSWMA4nfO6GFwzMSb9mH0vj1LEAvPUFoX9fGVvvA2LXQOXZi2gQ0O5iHf87jBOsY99x6vtBm6R5LVohivwZZFoqHDPUI%25VP48"
            }
        ]
    },
    "technicalData": {
        "powerHp": 135,
        "fuelType": "GASOLINE",
        "transmission": "AUTOMATIC",
        "driveType": "REAR",
        "cylinderCapacityCubic": "1997"
    }
}